Extract ratings (wide or long format) — ratings • OpenRepGrid
…
#> 7                                                          5
#> 8                                                          5
#> 9                                                          5
#>   A teacher you did not respect
#> 1                             6
#> 2                             7
#> 3                             3
#> 4                             4
#> 5                             3
#> 6                             2
#> 7                             5
#> 8                             6
#> 9                             5
ratings_df(x, long = TRUE)
#> # A tibble: 90 × 5
#>    construct_index leftpole rightpole       element                       rating
#>              <int> <chr>    <chr>           <chr>                          <dbl>
#>  1               1 relaxed  worried & tense self                               2
#>  2               1 relaxed  worried & tense closest friend of the same s…      2
#>  3               1 relaxed  worried & tense the unhappiest person you kn…      2
#>  4               1 relaxed  worried & tense A person of the opposite sex…      2
#>  5               1 relaxed  worried & tense A teacher you respected            5
#>  6               1 relaxed  worried & tense Mother (or the person who fi…      5
#>  7               1 relaxed  worried & tense A person of the opposite sex…      5
#>  8               1 relaxed  worried & tense The most confident person yo…      2
#>  9               1 relaxed  worried & tense A person you work well with …      2
#> 10               1 relaxed  worried & tense A teacher you did not respect      6
#> # ℹ 80 more rows
…
